ID=1, WRAP=0, TOPO=TREE, N=256, RATE=1, PAT=`LOCAL, sent=21897, recv=21892, time_taken=8447, injection_rate=.010, offered_rate=.010, worst_latency=1599, sum_queueing=9
ID=2, WRAP=1, TOPO=TREE, N=256, RATE=1, PAT=`LOCAL, sent=21617, recv=21526, time_taken=8337, injection_rate=.010, offered_rate=.010, worst_latency=8328, sum_queueing=3
ID=3, WRAP=0, TOPO=TREE, N=256, RATE=5, PAT=`LOCAL, sent=130640, recv=130630, time_taken=10689, injection_rate=.050, offered_rate=.047, worst_latency=513, sum_queueing=1681
ID=4, WRAP=1, TOPO=TREE, N=256, RATE=5, PAT=`LOCAL, sent=130640, recv=130234, time_taken=10689, injection_rate=.050, offered_rate=.047, worst_latency=7791, sum_queueing=378
ID=5, WRAP=0, TOPO=TREE, N=256, RATE=10, PAT=`LOCAL, sent=131072, recv=131072, time_taken=5724, injection_rate=.100, offered_rate=.089, worst_latency=110, sum_queueing=10125
ID=6, WRAP=1, TOPO=TREE, N=256, RATE=10, PAT=`LOCAL, sent=131072, recv=130671, time_taken=5724, injection_rate=.100, offered_rate=.089, worst_latency=4078, sum_queueing=1776
ID=7, WRAP=0, TOPO=TREE, N=256, RATE=20, PAT=`LOCAL, sent=131072, recv=131057, time_taken=16804, injection_rate=.200, offered_rate=.030, worst_latency=16127, sum_queueing=869556588
ID=8, WRAP=1, TOPO=TREE, N=256, RATE=20, PAT=`LOCAL, sent=131072, recv=130652, time_taken=2888, injection_rate=.200, offered_rate=.177, worst_latency=2145, sum_queueing=11748
ID=9, WRAP=0, TOPO=TREE, N=256, RATE=50, PAT=`LOCAL, sent=131072, recv=131068, time_taken=17404, injection_rate=.500, offered_rate=.029, worst_latency=17028, sum_queueing=1009298269
ID=10, WRAP=1, TOPO=TREE, N=256, RATE=50, PAT=`LOCAL, sent=131072, recv=130666, time_taken=6143, injection_rate=.500, offered_rate=.083, worst_latency=5991, sum_queueing=214108988
ID=12, WRAP=1, TOPO=TREE, N=256, RATE=100, PAT=`LOCAL, sent=131072, recv=130658, time_taken=6382, injection_rate=1.000, offered_rate=.080, worst_latency=6282, sum_queueing=251441797
ID=13, WRAP=0, TOPO=MESH0, N=256, RATE=1, PAT=`LOCAL, sent=21820, recv=21812, time_taken=8416, injection_rate=.010, offered_rate=.010, worst_latency=1898, sum_queueing=7
ID=14, WRAP=1, TOPO=MESH0, N=256, RATE=1, PAT=`LOCAL, sent=21617, recv=21526, time_taken=8337, injection_rate=.010, offered_rate=.010, worst_latency=8328, sum_queueing=0
ID=15, WRAP=0, TOPO=MESH0, N=256, RATE=5, PAT=`LOCAL, sent=130640, recv=130631, time_taken=10689, injection_rate=.050, offered_rate=.047, worst_latency=470, sum_queueing=554
ID=16, WRAP=1, TOPO=MESH0, N=256, RATE=5, PAT=`LOCAL, sent=130640, recv=130234, time_taken=10689, injection_rate=.050, offered_rate=.047, worst_latency=7791, sum_queueing=18
ID=17, WRAP=0, TOPO=MESH0, N=256, RATE=10, PAT=`LOCAL, sent=131072, recv=131072, time_taken=5724, injection_rate=.100, offered_rate=.089, worst_latency=41, sum_queueing=2418
ID=18, WRAP=1, TOPO=MESH0, N=256, RATE=10, PAT=`LOCAL, sent=131072, recv=130672, time_taken=5724, injection_rate=.100, offered_rate=.089, worst_latency=4059, sum_queueing=137
ID=19, WRAP=0, TOPO=MESH0, N=256, RATE=20, PAT=`LOCAL, sent=131072, recv=131072, time_taken=2888, injection_rate=.200, offered_rate=.177, worst_latency=55, sum_queueing=12456
ID=20, WRAP=1, TOPO=MESH0, N=256, RATE=20, PAT=`LOCAL, sent=131072, recv=130656, time_taken=2888, injection_rate=.200, offered_rate=.177, worst_latency=2127, sum_queueing=884
ID=21, WRAP=0, TOPO=MESH0, N=256, RATE=50, PAT=`LOCAL, sent=131072, recv=131072, time_taken=2827, injection_rate=.500, offered_rate=.181, worst_latency=2042, sum_queueing=112417040
ID=22, WRAP=1, TOPO=MESH0, N=256, RATE=50, PAT=`LOCAL, sent=131072, recv=130646, time_taken=1120, injection_rate=.500, offered_rate=.457, worst_latency=904, sum_queueing=63257
ID=23, WRAP=0, TOPO=MESH0, N=256, RATE=100, PAT=`LOCAL, sent=131072, recv=131072, time_taken=2864, injection_rate=1.000, offered_rate=.178, worst_latency=2354, sum_queueing=152984971
ID=24, WRAP=1, TOPO=MESH0, N=256, RATE=100, PAT=`LOCAL, sent=131072, recv=130654, time_taken=1153, injection_rate=1.000, offered_rate=.444, worst_latency=1075, sum_queueing=29104963
ID=25, WRAP=0, TOPO=MESH1, N=256, RATE=1, PAT=`LOCAL, sent=21820, recv=21812, time_taken=8416, injection_rate=.010, offered_rate=.010, worst_latency=1898, sum_queueing=8
ID=26, WRAP=1, TOPO=MESH1, N=256, RATE=1, PAT=`LOCAL, sent=21617, recv=21526, time_taken=8337, injection_rate=.010, offered_rate=.010, worst_latency=8328, sum_queueing=0
ID=27, WRAP=0, TOPO=MESH1, N=256, RATE=5, PAT=`LOCAL, sent=130640, recv=130631, time_taken=10689, injection_rate=.050, offered_rate=.047, worst_latency=470, sum_queueing=424
ID=28, WRAP=1, TOPO=MESH1, N=256, RATE=5, PAT=`LOCAL, sent=130640, recv=130234, time_taken=10689, injection_rate=.050, offered_rate=.047, worst_latency=7791, sum_queueing=18
ID=29, WRAP=0, TOPO=MESH1, N=256, RATE=10, PAT=`LOCAL, sent=131072, recv=131072, time_taken=5724, injection_rate=.100, offered_rate=.089, worst_latency=36, sum_queueing=1844
ID=30, WRAP=1, TOPO=MESH1, N=256, RATE=10, PAT=`LOCAL, sent=131072, recv=130672, time_taken=5724, injection_rate=.100, offered_rate=.089, worst_latency=4059, sum_queueing=133
ID=31, WRAP=0, TOPO=MESH1, N=256, RATE=20, PAT=`LOCAL, sent=131072, recv=131072, time_taken=2888, injection_rate=.200, offered_rate=.177, worst_latency=45, sum_queueing=9296
ID=32, WRAP=1, TOPO=MESH1, N=256, RATE=20, PAT=`LOCAL, sent=131072, recv=130656, time_taken=2888, injection_rate=.200, offered_rate=.177, worst_latency=2127, sum_queueing=862
ID=33, WRAP=0, TOPO=MESH1, N=256, RATE=50, PAT=`LOCAL, sent=131072, recv=131072, time_taken=1511, injection_rate=.500, offered_rate=.338, worst_latency=582, sum_queueing=19107770
ID=34, WRAP=1, TOPO=MESH1, N=256, RATE=50, PAT=`LOCAL, sent=131072, recv=130641, time_taken=1120, injection_rate=.500, offered_rate=.457, worst_latency=878, sum_queueing=46678
ID=35, WRAP=0, TOPO=MESH1, N=256, RATE=100, PAT=`LOCAL, sent=131072, recv=131072, time_taken=1561, injection_rate=1.000, offered_rate=.327, worst_latency=1048, sum_queueing=54410374
ID=36, WRAP=1, TOPO=MESH1, N=256, RATE=100, PAT=`LOCAL, sent=131072, recv=130646, time_taken=912, injection_rate=1.000, offered_rate=.561, worst_latency=868, sum_queueing=19223586
ID=38, WRAP=1, TOPO=XBAR, N=256, RATE=1, PAT=`LOCAL, sent=21617, recv=21526, time_taken=8337, injection_rate=.010, offered_rate=.010, worst_latency=8328, sum_queueing=0
ID=39, WRAP=0, TOPO=XBAR, N=256, RATE=5, PAT=`LOCAL, sent=130640, recv=130631, time_taken=10689, injection_rate=.050, offered_rate=.047, worst_latency=470, sum_queueing=371
ID=40, WRAP=1, TOPO=XBAR, N=256, RATE=5, PAT=`LOCAL, sent=130640, recv=130234, time_taken=10689, injection_rate=.050, offered_rate=.047, worst_latency=7791, sum_queueing=18
ID=41, WRAP=0, TOPO=XBAR, N=256, RATE=10, PAT=`LOCAL, sent=131072, recv=131072, time_taken=5724, injection_rate=.100, offered_rate=.089, worst_latency=45, sum_queueing=1681
ID=42, WRAP=1, TOPO=XBAR, N=256, RATE=10, PAT=`LOCAL, sent=131072, recv=130672, time_taken=5724, injection_rate=.100, offered_rate=.089, worst_latency=4059, sum_queueing=133
ID=43, WRAP=0, TOPO=XBAR, N=256, RATE=20, PAT=`LOCAL, sent=131072, recv=131072, time_taken=2888, injection_rate=.200, offered_rate=.177, worst_latency=65, sum_queueing=7633
ID=44, WRAP=1, TOPO=XBAR, N=256, RATE=20, PAT=`LOCAL, sent=131072, recv=130656, time_taken=2888, injection_rate=.200, offered_rate=.177, worst_latency=2127, sum_queueing=862
ID=45, WRAP=0, TOPO=XBAR, N=256, RATE=50, PAT=`LOCAL, sent=131072, recv=131072, time_taken=1146, injection_rate=.500, offered_rate=.446, worst_latency=249, sum_queueing=361535
ID=46, WRAP=1, TOPO=XBAR, N=256, RATE=50, PAT=`LOCAL, sent=131072, recv=130643, time_taken=1120, injection_rate=.500, offered_rate=.457, worst_latency=874, sum_queueing=46317
ID=47, WRAP=0, TOPO=XBAR, N=256, RATE=100, PAT=`LOCAL, sent=131072, recv=131072, time_taken=1185, injection_rate=1.000, offered_rate=.432, worst_latency=679, sum_queueing=28028660
ID=48, WRAP=1, TOPO=XBAR, N=256, RATE=100, PAT=`LOCAL, sent=131072, recv=130638, time_taken=873, injection_rate=1.000, offered_rate=.586, worst_latency=838, sum_queueing=17147924
